PUNTO1, 84.307755, 721.581656, -0.023100, 0.000010, 0.000001, 1.000000
PUNTO2, -52.483048, 663.416348, -0.025650, 0.000010, 0.000001, 1.000000
PUNTO3, 51.695937, 545.660904, -0.026357, 0.000010, 0.000001, 1.000000
PUNTO4, 51.696567, 295.865200, -0.023222, 0.000010, 0.000001, 1.000000
PUNTO5, -81.046408, 127.571442, -0.023628, 0.000010, 0.000001, 1.000000
PUNTO6, 75.021408, -4.031240, -0.025736, 0.000010, 0.000001, 1.000000
PIANO1, 21.532035, 391.677385, -0.024615, -0.000000, 0.000000, 1.000000
PUNTO10, -0.000000, 0.000000, 0.000000, 0.000010, 0.000001, 1.000000
PUNTO11, 0.000557, 0.000303, 0.740019, 0.000010, 0.000001, 1.000000
PUNTO12, 36.003777, -0.002957, 0.779871, 0.000010, 0.000001, 1.000000
PUNTO13, 35.997695, 703.397006, 0.747609, 0.000010, 0.000001, 1.000000
PUNTO14, 0.007493, 703.381894, 0.936117, 0.000010, 0.000001, 1.000000
PUNTO15, -0.069507, 500.356128, 0.744290, 0.000010, 0.000001, 1.000000
PUNTO16, 0.456511, 500.355594, 0.744290, 0.000010, 0.000001, 1.000000
PUNTO17, -0.074234, 250.003104, 0.806663, 0.000010, 0.000001, 1.000000
PUNTO18, 36.025496, 250.003035, 0.949628, 0.000010, 0.000001, 1.000000
PUNTO19, 35.492978, 250.003066, 0.949629, 0.000010, 0.000001, 1.000000
PUNTO20, 36.014722, 500.001809, 0.788283, 0.000010, 0.000001, 1.000000
PUNTO30, -0.070994, -0.354532, -0.001503, 0.000010, 0.000001, 1.000000
PUNTO31, -0.018224, 249.652079, 0.801660, 0.000010, 0.000001, 1.000000
PUNTO32, 0.426791, 249.652055, 0.806659, 0.000010, 0.000001, 1.000000
PUNTO33, 36.033230, 499.649300, 0.805788, 0.000010, 0.000001, 1.000000
PUNTO34, 35.611215, 499.648828, 0.805788, 0.000010, 0.000001, 1.000000
