PUNTO1, 84.300734, 722.554258, -0.007091, 0.000010, 0.000001, 1.000000
PUNTO2, -52.490069, 664.388950, -0.009642, 0.000010, 0.000001, 1.000000
PUNTO3, 51.688916, 546.633506, -0.010348, 0.000010, 0.000001, 1.000000
PUNTO4, 51.689546, 296.837802, -0.007214, 0.000010, 0.000001, 1.000000
PUNTO5, -81.053429, 128.544044, -0.007620, 0.000010, 0.000001, 1.000000
PUNTO6, 75.014387, -3.058638, -0.009728, 0.000010, 0.000001, 1.000000
PIANO1, 21.525014, 392.649987, -0.008607, -0.000000, 0.000000, 1.000000
PUNT010, 0.000000, 0.000000, 0.000000, 0.000010, 0.000001, 1.000000
PUNTO11, 0.000548, 0.000254, 0.622516, 0.000010, 0.000001, 1.000000
PUNTO12, 36.016764, 0.001980, 0.622366, 0.000010, 0.000001, 1.000000
PUNTO13, 35.983141, 703.480562, 0.724609, 0.000010, 0.000001, 1.000000
PUNTO14, -0.018085, 703.469320, 0.582609, 0.000010, 0.000001, 1.000000
PUNTO15, -0.037005, 500.004661, 0.731315, 0.000010, 0.000001, 1.000000
PUNTO16, 0.460512, 500.004129, 0.731315, 0.000010, 0.000001, 1.000000
PUNTO17, -0.034245, 249.997571, 0.634158, 0.000010, 0.000001, 1.000000
PUNTO18, 36.014035, 249.998517, 0.807124, 0.000010, 0.000001, 1.000000
PUNTO19, 35.514468, 249.998547, 0.806624, 0.000010, 0.000001, 1.000000
PUNTO20, 36.004207, 500.007812, 0.656801, 0.000010, 0.000001, 1.000000
PUNTO30, 0.008537, -1.602655, 0.006486, 0.000010, 0.000001, 1.000000
PUNTO31, 0.008796, 248.400000, 0.685145, 0.000010, 0.000001, 1.000000
PUNTO32, 0.417810, 248.399476, 0.685144, 0.000010, 0.000001, 1.000000
PUNTO33, 35.993739, 498.403268, 0.709825, 0.000010, 0.000001, 1.000000
PUNTO34, 35.565724, 498.403296, 0.709825, 0.000010, 0.000001, 1.000000
