PUNTO1, 65.389232, 718.049123, -0.020188, 0.000007, 0.000004, 1.000000
PUNTO2, -17.559029, 678.877707, -0.020202, 0.000007, 0.000004, 1.000000
PUNTO3, 74.084274, 468.568172, -0.022849, 0.000007, 0.000004, 1.000000
PUNTO4, -60.422998, 233.560788, -0.019852, 0.000007, 0.000004, 1.000000
PUNTO5, 100.992887, 135.106550, -0.019299, 0.000007, 0.000004, 1.000000
PUNTO6, -58.773171, -19.015215, -0.021533, 0.000007, 0.000004, 1.000000
PIANO1, 17.285199, 369.191187, -0.020654, -0.000000, 0.000000, 1.000000
PUNTO10, 0.000000, -0.000000, 0.000000, 0.000007, 0.000004, 1.000000
PUNTO11, 0.000059, 0.000327, 0.793021, 0.000007, 0.000004, 1.000000
PUNTO12, 36.013773, 0.008043, 0.765988, 0.000007, 0.000004, 1.000000
PUNTO13, 36.047625, 703.691607, 0.749083, 0.000007, 0.000004, 1.000000
PUNTO14, 0.053418, 703.681965, 0.859971, 0.000007, 0.000004, 1.000000
PUNTO15, 0.020496, 500.006705, 0.778301, 0.000007, 0.000004, 1.000000
PUNTO16, 1.024030, 500.006640, 0.778304, 0.000007, 0.000004, 1.000000
PUNTO17, -0.004735, 250.003154, 0.786398, 0.000007, 0.000004, 1.000000
PUNTO18, 36.029483, 250.003541, 0.811979, 0.000007, 0.000004, 1.000000
PUNTO19, 35.017449, 250.003100, 0.811977, 0.000007, 0.000004, 1.000000
PUNTO20, 36.036217, 500.012410, 0.833408, 0.000007, 0.000004, 1.000000
PUNTO30, -0.012435, -2.890783, 0.000485, 0.000007, 0.000004, 1.000000
PUNTO31, 0.034832, 247.107999, 0.809883, 0.000007, 0.000004, 1.000000
PUNTO32, 0.968363, 247.108944, 0.810385, 0.000007, 0.000004, 1.000000
PUNTO33, 36.020269, 497.109300, 0.851957, 0.000007, 0.000004, 1.000000
PUNTO34, 35.104738, 497.109358, 0.851455, 0.000007, 0.000004, 1.000000
