T_10_01, 4.357807053569262
T_10_02, 6.442985554147009
T_10_03, 6.843776277036962
T_10_04, 7.036723889710351
T_10_05, 4.548799893155944
T_10_06, 8.807328008710243
T_10_07, 10.164501377588502
T_10_08, 6.284262422082477
T_10_09, 8.100678498353592
T_10_10, 8.015585831919067
T_10_11, 7.087915136858188
T_10_12, 6.856695529837102
T_10_13, 9.185910074732757
