PUNTO1, 97.799558, 739.482948, -0.009120, -0.000003, 0.000000, 1.000000
PUNTO2, -50.010718, 659.433118, -0.008814, -0.000003, 0.000000, 1.000000
PUNTO3, 32.858549, 526.948133, -0.008707, -0.000003, 0.000000, 1.000000
PUNTO4, -82.862219, 334.118604, -0.008933, -0.000003, 0.000000, 1.000000
PUNTO5, 91.949880, 158.920092, -0.008806, -0.000003, 0.000000, 1.000000
PUNTO6, -65.064226, 10.096567, -0.009024, -0.000003, 0.000000, 1.000000
PIANO1, 4.111804, 404.833244, -0.008901, 0.000000, 0.000000, 1.000000
PUNTO10, -0.000000, 0.000000, 0.000000, -0.000003, 0.000000, 1.000000
PUNTO11, 34.997513, 32.000701, 0.852139, -0.000003, 0.000000, 1.000000
PUNTO12, 34.991278, 672.000927, 0.853255, -0.000003, 0.000000, 1.000000
PUNTO13, 1.005903, 640.002542, 0.770450, -0.000003, 0.000000, 1.000000
PUNTO14, 0.976086, 63.999543, 0.770097, -0.000003, 0.000000, 1.000000
