PUNTO1, 97.686082, 738.225329, -0.013632, -0.000003, 0.000000, 1.000000
PUNTO2, -50.124194, 658.175499, -0.013326, -0.000003, 0.000000, 1.000000
PUNTO3, 32.745073, 525.690514, -0.013220, -0.000003, 0.000000, 1.000000
PUNTO4, -82.975695, 332.860985, -0.013445, -0.000003, 0.000000, 1.000000
PUNTO5, 91.836404, 157.662473, -0.013318, -0.000003, 0.000000, 1.000000
PUNTO6, -65.177702, 8.838948, -0.013536, -0.000003, 0.000000, 1.000000
PIANO1, 3.998328, 403.575625, -0.013413, 0.000000, 0.000000, 1.000000
PUNTO10, -0.000000, 0.000000, 0.000000, -0.000003, 0.000000, 1.000000
PUNTO11, 34.973491, 32.003570, 0.534132, -0.000003, 0.000000, 1.000000
PUNTO12, 34.985326, 672.001207, 0.506246, -0.000003, 0.000000, 1.000000
PUNTO13, 0.959914, 639.999332, 0.508425, -0.000003, 0.000000, 1.000000
PUNTO14, 0.943618, 64.000440, 0.513540, -0.000003, 0.000000, 1.000000
