T_10_01, 0.720, 0.772, 0.751
T_10_02, 0.499, 0.509, 0.493
T_10_03, 0.761, 0.760, 0.760
T_10_04, 0.498, 0.508, 0.507
T_10_05, 0.763, 0.762, 0.747
T_10_06, 0.505, 0.509, 0.506
T_10_07, 0.507, 0.503, 0.496
T_10_08, 0.772, 0.759, 0.737
T_10_09, 0.626, 0.636, 0.635
T_10_10, 0.504, 0.499, 0.499
T_10_11, 0.630, 0.636, 0.628
T_10_12, 0.505, 0.494, 0.498
T_10_13, 0.503, 0.506, 0.503
