T_10_01, 0.9745069999999988
T_10_02, 0.9587825000000029
T_10_03, 1.0152844999999977
T_10_04, 0.972532999999998
T_10_05, 0.9707830000000028
T_10_06, 0.9552819999999977
T_10_07, 0.9755330000000005
T_10_08, 1.007784
T_10_09, 0.9942829999999974
T_10_10, 0.9480329999999977
T_10_11, 0.9947829999999996
T_10_12, 0.9490320000000025
T_10_13, 0.9790330000000017
