 -519.651287	 0.018159
 0.136105	 -0.018183
 -12.007905	 0.000551
 -35.766917	 0.027307
 -60.661377	 -0.021593
 -84.337386	 0.000387
 -110.775346	 -0.047563
 -134.463377	 0.005011
 -159.263838	 -0.041312
 -184.585297	 -0.091871
 -209.207855	 0.001335
 -232.860302	 -0.066795
 -258.475352	 0.015266
 -283.156281	 -0.077966
 -308.231828	 -0.000287
 -332.248781	 -0.060470
 -358.389850	 0.050105
 -381.936305	 -0.006360
 -406.053309	 0.008324
 -430.537305	 0.011096
 -455.382712	 -0.114225
 -480.504797	 0.018084
 -503.267668	 -0.159118
