T_10_01, 0.009884478436156825
T_10_02, 0.004660670343423254
T_10_03, 0.007753594954456092
T_10_04, 0.013255192981498099
T_10_05, 0.0238896002771678
T_10_06, 0.010499210575581785
T_10_07, 0.008007044512014798
T_10_08, 0.02061447090535067
T_10_09, 0.006504510880915398
T_10_10, 0.014341490953617125
T_10_11, 0.006908648941913847
T_10_12, 0.00429178760866291
T_10_13, 0.007920166147442724
